Weekly Summary Template
…
The impact of noise and \(\beta\) values on \(R^2\)

Multiple regression with categorical covariates

library(tibble)
library(ISLR2)
attach(Credit)

df <- Credit %>%
  tibble()
colnames(df) <- tolower(colnames(df))
df

# A tibble: 400 × 11
   income limit rating cards   age educat…¹ own   student married region balance
    <dbl> <dbl>  <dbl> <dbl> <dbl>    <dbl> <fct> <fct>   <fct>   <fct>    <dbl>
 1   14.9  3606    283     2    34       11 No    No      Yes     South      333
 2  106.   6645    483     3    82       15 Yes   Yes     Yes     West       903
 3  105.   7075    514     4    71       11 No    No      No      West       580
 4  149.   9504    681     3    36       11 Yes   No      No      West       964
 5   55.9  4897    357     2    68       16 No    No      Yes     South      331
 6   80.2  8047    569     4    77       10 No    No      No      South     1151
 7   21.0  3388    259     2    37       12 Yes   No      No      East       203
 8   71.4  7114    512     2    87        9 No    No      No      West       872
 9   15.1  3300    266     5    66       13 Yes   No      No      South      279
10   71.1  6819    491     3    41       19 Yes   Yes     Yes     East      1350
# … with 390 more rows, and abbreviated variable name ¹​education

Plotting a model with more than 1 quantitative covariate

We will look at the following 3 columns: ‘income, rating, limit’.

df3 <- df %>%
  select('income', 'rating', 'limit')
df3

# A tibble: 400 × 3
   income rating limit
    <dbl>  <dbl> <dbl>
 1   14.9    283  3606
 2  106.     483  6645
 3  105.     514  7075
 4  149.     681  9504
 5   55.9    357  4897
 6   80.2    569  8047
 7   21.0    259  3388
 8   71.4    512  7114
 9   15.1    266  3300
10   71.1    491  6819
# … with 390 more rows
…
